<?xml version="1.0" encoding="utf-8"?>
<!-- Generator: Adobe Illustrator 19.2.0, SVG Export Plug-In . SVG Version: 6.00 Build 0)  -->
<svg version="1.1" id="Layer_1" xmlns="http://www.w3.org/2000/svg" xmlns:xlink="http://www.w3.org/1999/xlink" x="0px" y="0px"
	 width="12px" height="12px" viewBox="0 0 12 12" enable-background="new 0 0 12 12" xml:space="preserve">
<g>
	<rect fill="#0AA9FF" width="12" height="12"/>
	<g>
		<defs>
			<rect id="SVGID_1_" width="12" height="12"/>
		</defs>
		<clipPath id="SVGID_2_">
			<use xlink:href="#SVGID_1_"  overflow="visible"/>
		</clipPath>
		<path clip-path="url(#SVGID_2_)" fill="#FFFFFF" d="M5.4,9.5c-0.2,0-0.4-0.1-0.6-0.2L1.6,6.9l1.2-1.6l2.3,1.8l3.5-4.8l1.6,1.2
			L6.2,9.1C6,9.3,5.8,9.5,5.5,9.5C5.4,9.5,5.4,9.5,5.4,9.5z"/>
	</g>
</g>
<g>
</g>
<g>
</g>
<g>
</g>
<g>
</g>
<g>
</g>
<g>
</g>
</svg>
